<?xml version="1.0" standalone="no"?>
<!DOCTYPE svg PUBLIC "-//W3C//DTD SVG 20010904//EN"
 "http://www.w3.org/TR/2001/REC-SVG-20010904/DTD/svg10.dtd">
<svg version="1.0" xmlns="http://www.w3.org/2000/svg"
 width="100.000000pt" height="100.000000pt" viewBox="0 0 100.000000 100.000000"
 preserveAspectRatio="xMidYMid meet">
<metadata>
Created by potrace 1.11, written by Peter Selinger 2001-2013
</metadata>
<g transform="translate(0.000000,100.000000) scale(0.100000,-0.100000)"
fill="#000000" stroke="none">
<path d="M386 989 c-68 -16 -163 -68 -220 -119 -103 -95 -157 -209 -162 -346
-5 -142 36 -259 128 -360 95 -104 202 -153 345 -160 141 -6 259 36 362 130
234 215 206 595 -57 778 -81 56 -157 80 -262 83 -52 2 -112 -1 -134 -6z"/>
</g>
</svg>
